led_driver.vcd
$date
  2014-12-21 16:17:26.419575
$end
$version
  VCDFile
$end
$comment
  
$end
$timescale 1ns $end
$scope module logic $end
$var wire 1 ! CLK $end
$var wire 1 " SDI $end
$var wire 1 # LE $end
$upscope $end
$enddefinitions $end
$dumpvars
0!
0"
0#
$end
0"
0!
#500
1!
#1000
1"
0!
#1500
1!
#2000
1"
0!
#2500
1!
#3000
0"
0!
#3500
1!
#4000
1"
0!
#4500
1!
#5000
1"
0!
#5500
1!
#6000
0"
0!
#6500
1!
#7000
0"
0!
#7500
1!
#8000
0"
0!
#8500
1!
#9000
0"
0!
#9500
1!
#10000
1"
0!
#10500
1!
#11000
1"
0!
#11500
1!
#12000
0"
0!
#12500
1!
#13000
1"
1#
0!
#13500
1!
#14000
1"
1#
0!
#14500
1!
#15000
1"
1#
0!
#15500
1!
#16000
0#
0"
0!
#16500
1!
#17000
1"
0!
#17500
1!
#18000
0"
0!
#18500
1!
#19000
1"
0!
#19500
1!
#20000
1"
0!
#20500
1!
#21000
0"
0!
#21500
1!
#22000
0"
0!
#22500
1!
#23000
0"
0!
#23500
1!
#24000
0"
0!
#24500
1!
#25000
1"
0!
#25500
1!
#26000
0"
0!
#26500
1!
#27000
1"
0!
#27500
1!
#28000
0"
0!
#28500
1!
#29000
0"
1#
0!
#29500
1!
#30000
0"
1#
0!
#30500
1!
#31000
0"
1#
0!
#31500
1!
#32000
0#
0"
0!
#32500
1!
#33000
1"
0!
#33500
1!
#34000
0"
0!
#34500
1!
#35000
0"
0!
#35500
1!
#36000
1"
0!
#36500
1!
#37000
0"
0!
#37500
1!
#38000
1"
0!
#38500
1!
#39000
1"
0!
#39500
1!
#40000
1"
0!
#40500
1!
#41000
1"
0!
#41500
1!
#42000
0"
0!
#42500
1!
#43000
1"
0!
#43500
1!
#44000
0"
0!
#44500
1!
#45000
1"
1#
0!
#45500
1!
#46000
0"
1#
0!
#46500
1!
#47000
0"
1#
0!
#47500
1!
#48000
0#
0"
0!
#48500
1!
#49000
0"
0!
#49500
1!
#50000
0"
0!
#50500
1!
#51000
1"
0!
#51500
1!
#52000
1"
0!
#52500
1!
#53000
0"
0!
#53500
1!
#54000
0"
0!
#54500
1!
#55000
0"
0!
#55500
1!
#56000
1"
0!
#56500
1!
#57000
0"
0!
#57500
1!
#58000
1"
0!
#58500
1!
#59000
0"
0!
#59500
1!
#60000
1"
0!
#60500
1!
#61000
0"
1#
0!
#61500
1!
#62000
1"
1#
0!
#62500
1!
#63000
0"
1#
0!
#63500
1!
#64000
0#
1"
0!
#64500
1!
#65000
1"
0!
#65500
1!
#66000
1"
0!
#66500
1!
#67000
1"
0!
#67500
1!
#68000
1"
0!
#68500
1!
#69000
1"
0!
#69500
1!
#70000
1"
0!
#70500
1!
#71000
0"
0!
#71500
1!
#72000
0"
0!
#72500
1!
#73000
0"
0!
#73500
1!
#74000
1"
0!
#74500
1!
#75000
0"
0!
#75500
1!
#76000
1"
0!
#76500
1!
#77000
0"
1#
0!
#77500
1!
#78000
0"
1#
0!
#78500
1!
#79000
1"
1#
0!
#79500
1!
#80000
0#
0"
0!
#80500
1!
#81000
1"
0!
#81500
1!
#82000
1"
0!
#82500
1!
#83000
1"
0!
#83500
1!
#84000
1"
0!
#84500
1!
#85000
1"
0!
#85500
1!
#86000
1"
0!
#86500
1!
#87000
1"
0!
#87500
1!
#88000
0"
0!
#88500
1!
#89000
1"
0!
#89500
1!
#90000
1"
0!
#90500
1!
#91000
1"
0!
#91500
1!
#92000
1"
0!
#92500
1!
#93000
0"
1#
0!
#93500
1!
#94000
1"
1#
0!
#94500
1!
#95000
0"
1#
0!
#95500
1!
#96000
0#
0"
0!
#96500
1!
#97000
1"
0!
#97500
1!
#98000
0"
0!
#98500
1!
#99000
1"
0!
#99500
1!
#100000
0"
0!
#100500
1!
#101000
1"
0!
#101500
1!
#102000
0"
0!
#102500
1!
#103000
0"
0!
#103500
1!
#104000
1"
0!
#104500
1!
#105000
0"
0!
#105500
1!
#106000
1"
0!
#106500
1!
#107000
0"
0!
#107500
1!
#108000
1"
0!
#108500
1!
#109000
0"
1#
0!
#109500
1!
#110000
0"
1#
0!
#110500
1!
#111000
0"
1#
0!
#111500
1!
#112000
0#
1"
0!
#112500
1!
#113000
1"
0!
#113500
1!
#114000
0"
0!
#114500
1!
#115000
0"
0!
#115500
1!
#116000
0"
0!
#116500
1!
#117000
1"
0!
#117500
1!
#118000
1"
0!
#118500
1!
#119000
0"
0!
#119500
1!
#120000
1"
0!
#120500
1!
#121000
0"
0!
#121500
1!
#122000
0"
0!
#122500
1!
#123000
0"
0!
#123500
1!
#124000
1"
0!
#124500
1!
#125000
0"
1#
0!
#125500
1!
#126000
1"
1#
0!
#126500
1!
#127000
1"
1#
0!
#127500
1!
#128000
0#
0"
0!
#128500
1!
#129000
0"
0!
#129500
1!
#130000
1"
0!
#130500
1!
#131000
1"
0!
#131500
1!
#132000
0"
0!
#132500
1!
#133000
0"
0!
#133500
1!
#134000
0"
0!
#134500
1!
#135000
0"
0!
#135500
1!
#136000
0"
0!
#136500
1!
#137000
0"
0!
#137500
1!
#138000
0"
0!
#138500
1!
#139000
0"
0!
#139500
1!
#140000
1"
0!
#140500
1!
#141000
0"
1#
0!
#141500
1!
#142000
0"
1#
0!
#142500
1!
#143000
0"
1#
0!
#143500
1!
#144000
0#
1"
0!
#144500
1!
#145000
1"
0!
#145500
1!
#146000
0"
0!
#146500
1!
#147000
0"
0!
#147500
1!
#148000
1"
0!
#148500
1!
#149000
0"
0!
#149500
1!
#150000
0"
0!
#150500
1!
#151000
1"
0!
#151500
1!
#152000
1"
0!
#152500
1!
#153000
0"
0!
#153500
1!
#154000
1"
0!
#154500
1!
#155000
0"
0!
#155500
1!
#156000
1"
0!
#156500
1!
#157000
0"
1#
0!
#157500
1!
#158000
0"
1#
0!
#158500
1!
#159000
1"
1#
0!
#159500
1!
#160000
0#
0"
0!
#160500
1!
#161000
1"
0!
#161500
1!
#162000
1"
0!
#162500
1!
#163000
1"
0!
#163500
1!
#164000
1"
0!
#164500
1!
#165000
0"
0!
#165500
1!
#166000
0"
0!
#166500
1!
#167000
1"
0!
#167500
1!
#168000
1"
0!
#168500
1!
#169000
1"
0!
#169500
1!
#170000
0"
0!
#170500
1!
#171000
1"
0!
#171500
1!
#172000
0"
0!
#172500
1!
#173000
0"
1#
0!
#173500
1!
#174000
1"
1#
0!
#174500
1!
#175000
1"
1#
0!
#175500
1!
#176000
0#
1"
0!
#176500
1!
#177000
0"
0!
#177500
1!
#178000
1"
0!
#178500
1!
#179000
0"
0!
#179500
1!
#180000
1"
0!
#180500
1!
#181000
0"
0!
#181500
1!
#182000
1"
0!
#182500
1!
#183000
0"
0!
#183500
1!
#184000
0"
0!
#184500
1!
#185000
1"
0!
#185500
1!
#186000
1"
0!
#186500
1!
#187000
0"
0!
#187500
1!
#188000
0"
0!
#188500
1!
#189000
1"
1#
0!
#189500
1!
#190000
0"
1#
0!
#190500
1!
#191000
0"
1#
0!
#191500
1!
#192000
0#
0"
0!
#192500
1!
#193000
0"
0!
#193500
1!
#194000
1"
0!
#194500
1!
#195000
1"
0!
#195500
1!
#196000
1"
0!
#196500
1!
#197000
0"
0!
#197500
1!
#198000
1"
0!
#198500
1!
#199000
1"
0!
#199500
1!
#200000
0"
0!
#200500
1!
#201000
1"
0!
#201500
1!
#202000
1"
0!
#202500
1!
#203000
1"
0!
#203500
1!
#204000
0"
0!
#204500
1!
#205000
1"
1#
0!
#205500
1!
#206000
1"
1#
0!
#206500
1!
#207000
0"
1#
0!
#207500
1!
#208000
0#
1"
0!
#208500
1!
#209000
1"
0!
#209500
1!
#210000
1"
0!
#210500
1!
#211000
1"
0!
#211500
1!
#212000
0"
0!
#212500
1!
#213000
0"
0!
#213500
1!
#214000
0"
0!
#214500
1!
#215000
0"
0!
#215500
1!
#216000
0"
0!
#216500
1!
#217000
0"
0!
#217500
1!
#218000
1"
0!
#218500
1!
#219000
0"
0!
#219500
1!
#220000
1"
0!
#220500
1!
#221000
0"
1#
0!
#221500
1!
#222000
0"
1#
0!
#222500
1!
#223000
1"
1#
0!
#223500
1!
#224000
0#
0"
0!
#224500
1!
#225000
1"
0!
#225500
1!
#226000
1"
0!
#226500
1!
#227000
1"
0!
#227500
1!
#228000
0"
0!
#228500
1!
#229000
1"
0!
#229500
1!
#230000
1"
0!
#230500
1!
#231000
1"
0!
#231500
1!
#232000
1"
0!
#232500
1!
#233000
0"
0!
#233500
1!
#234000
1"
0!
#234500
1!
#235000
1"
0!
#235500
1!
#236000
0"
0!
#236500
1!
#237000
0"
1#
0!
#237500
1!
#238000
1"
1#
0!
#238500
1!
#239000
0"
1#
0!
#239500
1!
#240000
0#
1"
0!
#240500
1!
#241000
0"
0!
#241500
1!
#242000
0"
0!
#242500
1!
#243000
1"
0!
#243500
1!
#244000
1"
0!
#244500
1!
#245000
0"
0!
#245500
1!
#246000
0"
0!
#246500
1!
#247000
1"
0!
#247500
1!
#248000
0"
0!
#248500
1!
#249000
0"
0!
#249500
1!
#250000
0"
0!
#250500
1!
#251000
1"
1#
0!
#251500
1!
#252000
0"
1#
0!
#252500
1!
#253000
1"
1#
0!
#253500
1!
#254000
1"
1#
0!
#254500
1!
#255000
0"
1#
0!
#255500
1!
#256000
0#
0!
