test.vcd
$date
  2014-12-21 15:41:34.835189
$end
$version
  VCDFile
$end
$comment
  
$end
$timescale 1ns $end
$scope module logic $end
$var wire 8 ! data $end
$var wire 1 " data_valid $end
$upscope $end
$enddefinitions $end
$dumpvars
b00000000 !
0"
$end
b01100100 !
#10
b01100100 !
#20
b01100101 !
#30
b01100101 !
#40
b01100110 !
#50
b01100111 !
#60
b01100111 !
#70
b01101000 !
#80
b01101001 !
#90
b01101001 !
#100
b01101010 !
#110
b01101010 !
#120
b01101011 !
#130
b01101100 !
#140
b01101100 !
#150
b01101101 !
#160
b01101110 !
#170
b01101110 !
#180
b01101111 !
#190
b01101111 !
#200
b01110000 !
#210
b01110001 !
#220
b01110001 !
#230
b01110010 !
#240
b01110011 !
#250
b01110011 !
#260
b01110100 !
#270
b01110100 !
#280
b01110101 !
#290
b01110110 !
#300
b01110110 !
#310
b01110111 !
#320
b01110111 !
#330
b01111000 !
#340
b01111001 !
#350
b01111001 !
#360
b01111010 !
#370
b01111011 !
#380
b01111011 !
#390
b01111100 !
#400
b01111100 !
#410
b01111101 !
#420
b01111110 !
#430
b01111110 !
#440
b01111111 !
#450
b01111111 !
#460
b10000000 !
#470
b10000001 !
#480
b10000001 !
#490
b10000010 !
#500
b10000010 !
#510
b10000011 !
#520
b10000100 !
#530
b10000100 !
#540
b10000101 !
#550
b10000101 !
#560
b10000110 !
#570
b10000111 !
#580
b10000111 !
#590
b10001000 !
#600
b10001000 !
#610
b10001001 !
#620
b10001001 !
#630
b10001010 !
#640
b10001011 !
#650
b10001011 !
#660
b10001100 !
#670
b10001100 !
#680
b10001101 !
#690
b10001110 !
#700
b10001110 !
#710
b10001111 !
#720
b10001111 !
#730
b10010000 !
#740
b10010000 !
#750
b10010001 !
#760
b10010001 !
#770
b10010010 !
#780
b10010011 !
#790
b10010011 !
#800
b10010100 !
#810
b10010100 !
#820
b10010101 !
#830
b10010101 !
#840
b10010110 !
#850
b10010110 !
#860
b10010111 !
#870
b10010111 !
#880
b10011000 !
#890
b10011001 !
#900
b10011001 !
#910
b10011010 !
#920
b10011010 !
#930
b10011011 !
#940
b10011011 !
#950
b10011100 !
#960
b10011100 !
#970
b10011101 !
#980
b10011101 !
#990
b10011110 !
#1000
b10011110 !
#1010
b10011111 !
#1020
b10011111 !
#1030
b10100000 !
#1040
b10100000 !
#1050
b10100001 !
#1060
b10100001 !
#1070
b10100010 !
#1080
b10100010 !
#1090
b10100011 !
#1100
b10100011 !
#1110
b10100100 !
#1120
b10100100 !
#1130
b10100101 !
#1140
b10100101 !
#1150
b10100110 !
#1160
b10100110 !
#1170
b10100111 !
#1180
b10100111 !
#1190
b10100111 !
#1200
b10101000 !
#1210
b10101000 !
#1220
b10101001 !
#1230
b10101001 !
#1240
b10101010 !
#1250
b10101010 !
#1260
b10101011 !
#1270
b10101011 !
#1280
b10101100 !
#1290
b10101100 !
#1300
b10101100 !
#1310
b10101101 !
#1320
b10101101 !
#1330
b10101110 !
#1340
b10101110 !
#1350
b10101111 !
#1360
b10101111 !
#1370
b10101111 !
#1380
b10110000 !
#1390
b10110000 !
#1400
b10110001 !
#1410
b10110001 !
#1420
b10110001 !
#1430
b10110010 !
#1440
b10110010 !
#1450
b10110011 !
#1460
b10110011 !
#1470
b10110011 !
#1480
b10110100 !
#1490
b10110100 !
#1500
b10110100 !
#1510
b10110101 !
#1520
b10110101 !
#1530
b10110101 !
#1540
b10110110 !
#1550
b10110110 !
#1560
b10110111 !
#1570
b10110111 !
#1580
b10110111 !
#1590
b10111000 !
#1600
b10111000 !
#1610
b10111000 !
#1620
b10111001 !
#1630
b10111001 !
#1640
b10111001 !
#1650
b10111010 !
#1660
b10111010 !
#1670
b10111010 !
#1680
b10111011 !
#1690
b10111011 !
#1700
b10111011 !
#1710
b10111011 !
#1720
b10111100 !
#1730
b10111100 !
#1740
b10111100 !
#1750
b10111101 !
#1760
b10111101 !
#1770
b10111101 !
#1780
b10111101 !
#1790
b10111110 !
#1800
b10111110 !
#1810
b10111110 !
#1820
b10111111 !
#1830
b10111111 !
#1840
b10111111 !
#1850
b10111111 !
#1860
b11000000 !
#1870
b11000000 !
#1880
b11000000 !
#1890
b11000000 !
#1900
b11000000 !
#1910
b11000001 !
#1920
b11000001 !
#1930
b11000001 !
#1940
b11000001 !
#1950
b11000010 !
#1960
b11000010 !
#1970
b11000010 !
#1980
b11000010 !
#1990
b11000010 !
#2000
1"
b11000011 !
#2010
b11000011 !
#2020
b11000011 !
#2030
b11000011 !
#2040
b11000011 !
#2050
b11000100 !
#2060
b11000100 !
#2070
b11000100 !
#2080
b11000100 !
#2090
b11000100 !
#2100
b11000100 !
#2110
b11000101 !
#2120
b11000101 !
#2130
b11000101 !
#2140
b11000101 !
#2150
b11000101 !
#2160
b11000101 !
#2170
b11000101 !
#2180
b11000101 !
#2190
b11000110 !
#2200
b11000110 !
#2210
b11000110 !
#2220
b11000110 !
#2230
b11000110 !
#2240
b11000110 !
#2250
b11000110 !
#2260
b11000110 !
#2270
b11000110 !
#2280
b11000111 !
#2290
b11000111 !
#2300
b11000111 !
#2310
b11000111 !
#2320
b11000111 !
#2330
b11000111 !
#2340
b11000111 !
#2350
b11000111 !
#2360
b11000111 !
#2370
b11000111 !
#2380
b11000111 !
#2390
b11000111 !
#2400
b11000111 !
#2410
b11000111 !
#2420
b11000111 !
#2430
b11000111 !
#2440
b11000111 !
#2450
b11000111 !
#2460
b11000111 !
#2470
b11000111 !
#2480
b11000111 !
#2490
b11000111 !
#2500
b11001000 !
#2510
b11000111 !
#2520
b11000111 !
#2530
b11000111 !
#2540
b11000111 !
#2550
b11000111 !
#2560
b11000111 !
#2570
b11000111 !
#2580
b11000111 !
#2590
b11000111 !
#2600
b11000111 !
#2610
b11000111 !
#2620
b11000111 !
#2630
b11000111 !
#2640
b11000111 !
#2650
b11000111 !
#2660
b11000111 !
#2670
b11000111 !
#2680
b11000111 !
#2690
b11000111 !
#2700
b11000111 !
#2710
b11000111 !
#2720
b11000111 !
#2730
b11000110 !
#2740
b11000110 !
#2750
b11000110 !
#2760
b11000110 !
#2770
b11000110 !
#2780
b11000110 !
#2790
b11000110 !
#2800
b11000110 !
#2810
b11000110 !
#2820
b11000101 !
#2830
b11000101 !
#2840
b11000101 !
#2850
b11000101 !
#2860
b11000101 !
#2870
b11000101 !
#2880
b11000101 !
#2890
b11000101 !
#2900
b11000100 !
#2910
b11000100 !
#2920
b11000100 !
#2930
b11000100 !
#2940
b11000100 !
#2950
b11000100 !
#2960
b11000011 !
#2970
b11000011 !
#2980
b11000011 !
#2990
b11000011 !
#3000
b11000011 !
#3010
b11000010 !
#3020
b11000010 !
#3030
b11000010 !
#3040
b11000010 !
#3050
b11000010 !
#3060
b11000001 !
#3070
b11000001 !
#3080
b11000001 !
#3090
b11000001 !
#3100
b11000000 !
#3110
b11000000 !
#3120
b11000000 !
#3130
b11000000 !
#3140
b11000000 !
#3150
b10111111 !
#3160
b10111111 !
#3170
b10111111 !
#3180
b10111111 !
#3190
b10111110 !
#3200
b10111110 !
#3210
b10111110 !
#3220
b10111101 !
#3230
b10111101 !
#3240
b10111101 !
#3250
b10111101 !
#3260
b10111100 !
#3270
b10111100 !
#3280
b10111100 !
#3290
b10111011 !
#3300
b10111011 !
#3310
b10111011 !
#3320
b10111011 !
#3330
b10111010 !
#3340
b10111010 !
#3350
b10111010 !
#3360
b10111001 !
#3370
b10111001 !
#3380
b10111001 !
#3390
b10111000 !
#3400
b10111000 !
#3410
b10111000 !
#3420
b10110111 !
#3430
b10110111 !
#3440
b10110111 !
#3450
b10110110 !
#3460
b10110110 !
#3470
b10110101 !
#3480
b10110101 !
#3490
b10110101 !
#3500
b10110100 !
#3510
b10110100 !
#3520
b10110100 !
#3530
b10110011 !
#3540
b10110011 !
#3550
b10110011 !
#3560
b10110010 !
#3570
b10110010 !
#3580
b10110001 !
#3590
b10110001 !
#3600
b10110001 !
#3610
b10110000 !
#3620
b10110000 !
#3630
b10101111 !
#3640
b10101111 !
#3650
b10101111 !
#3660
b10101110 !
#3670
b10101110 !
#3680
b10101101 !
#3690
b10101101 !
#3700
b10101100 !
#3710
b10101100 !
#3720
b10101100 !
#3730
b10101011 !
#3740
b10101011 !
#3750
b10101010 !
#3760
b10101010 !
#3770
b10101001 !
#3780
b10101001 !
#3790
b10101000 !
#3800
b10101000 !
#3810
b10100111 !
#3820
b10100111 !
#3830
b10100111 !
#3840
b10100110 !
#3850
b10100110 !
#3860
b10100101 !
#3870
b10100101 !
#3880
b10100100 !
#3890
b10100100 !
#3900
b10100011 !
#3910
b10100011 !
#3920
b10100010 !
#3930
b10100010 !
#3940
b10100001 !
#3950
b10100001 !
#3960
b10100000 !
#3970
b10100000 !
#3980
b10011111 !
#3990
b10011111 !
#4000
b10011110 !
#4010
b10011110 !
#4020
b10011101 !
#4030
b10011101 !
#4040
b10011100 !
#4050
b10011100 !
#4060
b10011011 !
#4070
b10011011 !
#4080
b10011010 !
#4090
b10011010 !
#4100
b10011001 !
#4110
b10011001 !
#4120
b10011000 !
#4130
b10010111 !
#4140
b10010111 !
#4150
b10010110 !
#4160
b10010110 !
#4170
b10010101 !
#4180
b10010101 !
#4190
b10010100 !
#4200
b10010100 !
#4210
b10010011 !
#4220
b10010011 !
#4230
b10010010 !
#4240
b10010001 !
#4250
b10010001 !
#4260
b10010000 !
#4270
b10010000 !
#4280
b10001111 !
#4290
b10001111 !
#4300
b10001110 !
#4310
b10001110 !
#4320
b10001101 !
#4330
b10001100 !
#4340
b10001100 !
#4350
b10001011 !
#4360
b10001011 !
#4370
b10001010 !
#4380
b10001001 !
#4390
b10001001 !
#4400
b10001000 !
#4410
b10001000 !
#4420
b10000111 !
#4430
b10000111 !
#4440
b10000110 !
#4450
b10000101 !
#4460
b10000101 !
#4470
b10000100 !
#4480
b10000100 !
#4490
b10000011 !
#4500
b10000010 !
#4510
b10000010 !
#4520
b10000001 !
#4530
b10000001 !
#4540
b10000000 !
#4550
b01111111 !
#4560
b01111111 !
#4570
b01111110 !
#4580
b01111110 !
#4590
b01111101 !
#4600
b01111100 !
#4610
b01111100 !
#4620
b01111011 !
#4630
b01111011 !
#4640
b01111010 !
#4650
b01111001 !
#4660
b01111001 !
#4670
b01111000 !
#4680
b01110111 !
#4690
b01110111 !
#4700
b01110110 !
#4710
b01110110 !
#4720
b01110101 !
#4730
b01110100 !
#4740
b01110100 !
#4750
b01110011 !
#4760
b01110011 !
#4770
b01110010 !
#4780
b01110001 !
#4790
b01110001 !
#4800
b01110000 !
#4810
b01101111 !
#4820
b01101111 !
#4830
b01101110 !
#4840
b01101110 !
#4850
b01101101 !
#4860
b01101100 !
#4870
b01101100 !
#4880
b01101011 !
#4890
b01101010 !
#4900
b01101010 !
#4910
b01101001 !
#4920
b01101001 !
#4930
b01101000 !
#4940
b01100111 !
#4950
b01100111 !
#4960
b01100110 !
#4970
b01100101 !
#4980
b01100101 !
#4990
b01100100 !
#5000
b01100100 !
#5010
b01100011 !
#5020
b01100010 !
#5030
b01100010 !
#5040
b01100001 !
#5050
b01100000 !
#5060
b01100000 !
#5070
b01011111 !
#5080
b01011110 !
#5090
b01011110 !
#5100
b01011101 !
#5110
b01011101 !
#5120
b01011100 !
#5130
b01011011 !
#5140
b01011011 !
#5150
b01011010 !
#5160
b01011001 !
#5170
b01011001 !
#5180
b01011000 !
#5190
b01011000 !
#5200
b01010111 !
#5210
b01010110 !
#5220
b01010110 !
#5230
b01010101 !
#5240
b01010100 !
#5250
b01010100 !
#5260
b01010011 !
#5270
b01010011 !
#5280
b01010010 !
#5290
b01010001 !
#5300
b01010001 !
#5310
b01010000 !
#5320
b01010000 !
#5330
b01001111 !
#5340
b01001110 !
#5350
b01001110 !
#5360
b01001101 !
#5370
b01001100 !
#5380
b01001100 !
#5390
b01001011 !
#5400
b01001011 !
#5410
b01001010 !
#5420
b01001001 !
#5430
b01001001 !
#5440
b01001000 !
#5450
b01001000 !
#5460
b01000111 !
#5470
b01000110 !
#5480
b01000110 !
#5490
b01000101 !
#5500
b01000101 !
#5510
b01000100 !
#5520
b01000011 !
#5530
b01000011 !
#5540
b01000010 !
#5550
b01000010 !
#5560
b01000001 !
#5570
b01000000 !
#5580
b01000000 !
#5590
b00111111 !
#5600
b00111111 !
#5610
b00111110 !
#5620
b00111110 !
#5630
b00111101 !
#5640
b00111100 !
#5650
b00111100 !
#5660
b00111011 !
#5670
b00111011 !
#5680
b00111010 !
#5690
b00111001 !
#5700
b00111001 !
#5710
b00111000 !
#5720
b00111000 !
#5730
b00110111 !
#5740
b00110111 !
#5750
b00110110 !
#5760
b00110110 !
#5770
b00110101 !
#5780
b00110100 !
#5790
b00110100 !
#5800
b00110011 !
#5810
b00110011 !
#5820
b00110010 !
#5830
b00110010 !
#5840
b00110001 !
#5850
b00110001 !
#5860
b00110000 !
#5870
b00110000 !
#5880
b00101111 !
#5890
b00101110 !
#5900
b00101110 !
#5910
b00101101 !
#5920
b00101101 !
#5930
b00101100 !
#5940
b00101100 !
#5950
b00101011 !
#5960
b00101011 !
#5970
b00101010 !
#5980
b00101010 !
#5990
b00101001 !
#6000
b00101001 !
#6010
b00101000 !
#6020
b00101000 !
#6030
b00100111 !
#6040
b00100111 !
#6050
b00100110 !
#6060
b00100110 !
#6070
b00100101 !
#6080
b00100101 !
#6090
b00100100 !
#6100
b00100100 !
#6110
b00100011 !
#6120
b00100011 !
#6130
b00100010 !
#6140
b00100010 !
#6150
b00100001 !
#6160
b00100001 !
#6170
b00100000 !
#6180
b00100000 !
#6190
b00100000 !
#6200
b00011111 !
#6210
b00011111 !
#6220
b00011110 !
#6230
b00011110 !
#6240
b00011101 !
#6250
b00011101 !
#6260
b00011100 !
#6270
b00011100 !
#6280
b00011011 !
#6290
b00011011 !
#6300
b00011011 !
#6310
b00011010 !
#6320
b00011010 !
#6330
b00011001 !
#6340
b00011001 !
#6350
b00011000 !
#6360
b00011000 !
#6370
b00011000 !
#6380
b00010111 !
#6390
b00010111 !
#6400
b00010110 !
#6410
b00010110 !
#6420
b00010110 !
#6430
b00010101 !
#6440
b00010101 !
#6450
b00010100 !
#6460
b00010100 !
#6470
b00010100 !
#6480
b00010011 !
#6490
b00010011 !
#6500
b00010011 !
#6510
b00010010 !
#6520
b00010010 !
#6530
b00010010 !
#6540
b00010001 !
#6550
b00010001 !
#6560
b00010000 !
#6570
b00010000 !
#6580
b00010000 !
#6590
b00001111 !
#6600
b00001111 !
#6610
b00001111 !
#6620
b00001110 !
#6630
b00001110 !
#6640
b00001110 !
#6650
b00001101 !
#6660
b00001101 !
#6670
b00001101 !
#6680
b00001100 !
#6690
b00001100 !
#6700
b00001100 !
#6710
b00001100 !
#6720
b00001011 !
#6730
b00001011 !
#6740
b00001011 !
#6750
b00001010 !
#6760
b00001010 !
#6770
b00001010 !
#6780
b00001010 !
#6790
b00001001 !
#6800
b00001001 !
#6810
b00001001 !
#6820
b00001000 !
#6830
b00001000 !
#6840
b00001000 !
#6850
b00001000 !
#6860
b00000111 !
#6870
b00000111 !
#6880
b00000111 !
#6890
b00000111 !
#6900
b00000111 !
#6910
b00000110 !
#6920
b00000110 !
#6930
b00000110 !
#6940
b00000110 !
#6950
b00000101 !
#6960
b00000101 !
#6970
b00000101 !
#6980
b00000101 !
#6990
b00000101 !
#7000
b00000100 !
#7010
b00000100 !
#7020
b00000100 !
#7030
b00000100 !
#7040
b00000100 !
#7050
b00000011 !
#7060
b00000011 !
#7070
b00000011 !
#7080
b00000011 !
#7090
b00000011 !
#7100
b00000011 !
#7110
b00000010 !
#7120
b00000010 !
#7130
b00000010 !
#7140
b00000010 !
#7150
b00000010 !
#7160
b00000010 !
#7170
b00000010 !
#7180
b00000010 !
#7190
b00000001 !
#7200
b00000001 !
#7210
b00000001 !
#7220
b00000001 !
#7230
b00000001 !
#7240
b00000001 !
#7250
b00000001 !
#7260
b00000001 !
#7270
b00000001 !
#7280
b00000000 !
#7290
b00000000 !
#7300
b00000000 !
#7310
b00000000 !
#7320
b00000000 !
#7330
b00000000 !
#7340
b00000000 !
#7350
b00000000 !
#7360
b00000000 !
#7370
b00000000 !
#7380
b00000000 !
#7390
b00000000 !
#7400
b00000000 !
#7410
b00000000 !
#7420
b00000000 !
#7430
b00000000 !
#7440
b00000000 !
#7450
b00000000 !
#7460
b00000000 !
#7470
b00000000 !
#7480
b00000000 !
#7490
b00000000 !
#7500
b00000000 !
#7510
b00000000 !
#7520
b00000000 !
#7530
b00000000 !
#7540
b00000000 !
#7550
b00000000 !
#7560
b00000000 !
#7570
b00000000 !
#7580
b00000000 !
#7590
b00000000 !
#7600
b00000000 !
#7610
b00000000 !
#7620
b00000000 !
#7630
b00000000 !
#7640
b00000000 !
#7650
b00000000 !
#7660
b00000000 !
#7670
b00000000 !
#7680
b00000000 !
#7690
b00000000 !
#7700
b00000000 !
#7710
b00000000 !
#7720
b00000000 !
#7730
b00000001 !
#7740
b00000001 !
#7750
b00000001 !
#7760
b00000001 !
#7770
b00000001 !
#7780
b00000001 !
#7790
b00000001 !
#7800
b00000001 !
#7810
b00000001 !
#7820
b00000010 !
#7830
b00000010 !
#7840
b00000010 !
#7850
b00000010 !
#7860
b00000010 !
#7870
b00000010 !
#7880
b00000010 !
#7890
b00000010 !
#7900
b00000011 !
#7910
b00000011 !
#7920
b00000011 !
#7930
b00000011 !
#7940
b00000011 !
#7950
b00000011 !
#7960
b00000100 !
#7970
b00000100 !
#7980
b00000100 !
#7990
b00000100 !
#8000
b00000100 !
#8010
b00000101 !
#8020
b00000101 !
#8030
b00000101 !
#8040
b00000101 !
#8050
b00000101 !
#8060
b00000110 !
#8070
b00000110 !
#8080
b00000110 !
#8090
b00000110 !
#8100
b00000111 !
#8110
b00000111 !
#8120
b00000111 !
#8130
b00000111 !
#8140
b00000111 !
#8150
b00001000 !
#8160
b00001000 !
#8170
b00001000 !
#8180
b00001000 !
#8190
b00001001 !
#8200
b00001001 !
#8210
b00001001 !
#8220
b00001010 !
#8230
b00001010 !
#8240
b00001010 !
#8250
b00001010 !
#8260
b00001011 !
#8270
b00001011 !
#8280
b00001011 !
#8290
b00001100 !
#8300
b00001100 !
#8310
b00001100 !
#8320
b00001100 !
#8330
b00001101 !
#8340
b00001101 !
#8350
b00001101 !
#8360
b00001110 !
#8370
b00001110 !
#8380
b00001110 !
#8390
b00001111 !
#8400
b00001111 !
#8410
b00001111 !
#8420
b00010000 !
#8430
b00010000 !
#8440
b00010000 !
#8450
b00010001 !
#8460
b00010001 !
#8470
b00010010 !
#8480
b00010010 !
#8490
b00010010 !
#8500
b00010011 !
#8510
b00010011 !
#8520
b00010011 !
#8530
b00010100 !
#8540
b00010100 !
#8550
b00010100 !
#8560
b00010101 !
#8570
b00010101 !
#8580
b00010110 !
#8590
b00010110 !
#8600
b00010110 !
#8610
b00010111 !
#8620
b00010111 !
#8630
b00011000 !
#8640
b00011000 !
#8650
b00011000 !
#8660
b00011001 !
#8670
b00011001 !
#8680
b00011010 !
#8690
b00011010 !
#8700
b00011011 !
#8710
b00011011 !
#8720
b00011011 !
#8730
b00011100 !
#8740
b00011100 !
#8750
b00011101 !
#8760
b00011101 !
#8770
b00011110 !
#8780
b00011110 !
#8790
b00011111 !
#8800
b00011111 !
#8810
b00100000 !
#8820
b00100000 !
#8830
b00100000 !
#8840
b00100001 !
#8850
b00100001 !
#8860
b00100010 !
#8870
b00100010 !
#8880
b00100011 !
#8890
b00100011 !
#8900
b00100100 !
#8910
b00100100 !
#8920
b00100101 !
#8930
b00100101 !
#8940
b00100110 !
#8950
b00100110 !
#8960
b00100111 !
#8970
b00100111 !
#8980
b00101000 !
#8990
b00101000 !
#9000
b00101001 !
#9010
b00101001 !
#9020
b00101010 !
#9030
b00101010 !
#9040
b00101011 !
#9050
b00101011 !
#9060
b00101100 !
#9070
b00101100 !
#9080
b00101101 !
#9090
b00101101 !
#9100
b00101110 !
#9110
b00101110 !
#9120
b00101111 !
#9130
b00110000 !
#9140
b00110000 !
#9150
b00110001 !
#9160
b00110001 !
#9170
b00110010 !
#9180
b00110010 !
#9190
b00110011 !
#9200
b00110011 !
#9210
b00110100 !
#9220
b00110100 !
#9230
b00110101 !
#9240
b00110110 !
#9250
b00110110 !
#9260
b00110111 !
#9270
b00110111 !
#9280
b00111000 !
#9290
b00111000 !
#9300
b00111001 !
#9310
b00111001 !
#9320
b00111010 !
#9330
b00111011 !
#9340
b00111011 !
#9350
b00111100 !
#9360
b00111100 !
#9370
b00111101 !
#9380
b00111110 !
#9390
b00111110 !
#9400
b00111111 !
#9410
b00111111 !
#9420
b01000000 !
#9430
b01000000 !
#9440
b01000001 !
#9450
b01000010 !
#9460
b01000010 !
#9470
b01000011 !
#9480
b01000011 !
#9490
b01000100 !
#9500
b01000101 !
#9510
b01000101 !
#9520
b01000110 !
#9530
b01000110 !
#9540
b01000111 !
#9550
b01001000 !
#9560
b01001000 !
#9570
b01001001 !
#9580
b01001001 !
#9590
b01001010 !
#9600
b01001011 !
#9610
b01001011 !
#9620
b01001100 !
#9630
b01001100 !
#9640
b01001101 !
#9650
b01001110 !
#9660
b01001110 !
#9670
b01001111 !
#9680
b01010000 !
#9690
b01010000 !
#9700
b01010001 !
#9710
b01010001 !
#9720
b01010010 !
#9730
b01010011 !
#9740
b01010011 !
#9750
b01010100 !
#9760
b01010100 !
#9770
b01010101 !
#9780
b01010110 !
#9790
b01010110 !
#9800
b01010111 !
#9810
b01011000 !
#9820
b01011000 !
#9830
b01011001 !
#9840
b01011001 !
#9850
b01011010 !
#9860
b01011011 !
#9870
b01011011 !
#9880
b01011100 !
#9890
b01011101 !
#9900
b01011101 !
#9910
b01011110 !
#9920
b01011110 !
#9930
b01011111 !
#9940
b01100000 !
#9950
b01100000 !
#9960
b01100001 !
#9970
b01100010 !
#9980
b01100010 !
#9990
b01100011 !
#10000
b01100011 !
#10010
b01100100 !
#10020
b01100101 !
#10030
b01100101 !
#10040
b01100110 !
#10050
b01100111 !
#10060
b01100111 !
#10070
b01101000 !
#10080
b01101001 !
#10090
b01101001 !
#10100
b01101010 !
#10110
b01101010 !
#10120
b01101011 !
#10130
b01101100 !
#10140
b01101100 !
#10150
b01101101 !
#10160
b01101110 !
#10170
b01101110 !
#10180
b01101111 !
#10190
b01101111 !
#10200
b01110000 !
#10210
b01110001 !
#10220
b01110001 !
#10230
b01110010 !
#10240
b01110011 !
#10250
b01110011 !
#10260
b01110100 !
#10270
b01110100 !
#10280
b01110101 !
#10290
b01110110 !
#10300
b01110110 !
#10310
b01110111 !
#10320
b01110111 !
#10330
b01111000 !
#10340
b01111001 !
#10350
b01111001 !
#10360
b01111010 !
#10370
b01111011 !
#10380
b01111011 !
#10390
b01111100 !
#10400
b01111100 !
#10410
b01111101 !
#10420
b01111110 !
#10430
b01111110 !
#10440
b01111111 !
#10450
b01111111 !
#10460
b10000000 !
#10470
b10000001 !
#10480
b10000001 !
#10490
b10000010 !
#10500
b10000010 !
#10510
b10000011 !
#10520
b10000100 !
#10530
b10000100 !
#10540
b10000101 !
#10550
b10000101 !
#10560
b10000110 !
#10570
b10000111 !
#10580
b10000111 !
#10590
b10001000 !
#10600
b10001000 !
#10610
b10001001 !
#10620
b10001001 !
#10630
b10001010 !
#10640
b10001011 !
#10650
b10001011 !
#10660
b10001100 !
#10670
b10001100 !
#10680
b10001101 !
#10690
b10001110 !
#10700
b10001110 !
#10710
b10001111 !
#10720
b10001111 !
#10730
b10010000 !
#10740
b10010000 !
#10750
b10010001 !
#10760
b10010001 !
#10770
b10010010 !
#10780
b10010011 !
#10790
b10010011 !
#10800
b10010100 !
#10810
b10010100 !
#10820
b10010101 !
#10830
b10010101 !
#10840
b10010110 !
#10850
b10010110 !
#10860
b10010111 !
#10870
b10010111 !
#10880
b10011000 !
#10890
b10011001 !
#10900
b10011001 !
#10910
b10011010 !
#10920
b10011010 !
#10930
b10011011 !
#10940
b10011011 !
#10950
b10011100 !
#10960
b10011100 !
#10970
b10011101 !
#10980
b10011101 !
#10990
b10011110 !
#11000
b10011110 !
#11010
b10011111 !
#11020
b10011111 !
#11030
b10100000 !
#11040
b10100000 !
#11050
b10100001 !
#11060
b10100001 !
#11070
b10100010 !
#11080
b10100010 !
#11090
b10100011 !
#11100
b10100011 !
#11110
b10100100 !
#11120
b10100100 !
#11130
b10100101 !
#11140
b10100101 !
#11150
b10100110 !
#11160
b10100110 !
#11170
b10100111 !
#11180
b10100111 !
#11190
b10100111 !
#11200
b10101000 !
#11210
b10101000 !
#11220
b10101001 !
#11230
b10101001 !
#11240
b10101010 !
#11250
b10101010 !
#11260
b10101011 !
#11270
b10101011 !
#11280
b10101100 !
#11290
b10101100 !
#11300
b10101100 !
#11310
b10101101 !
#11320
b10101101 !
#11330
b10101110 !
#11340
b10101110 !
#11350
b10101111 !
#11360
b10101111 !
#11370
b10101111 !
#11380
b10110000 !
#11390
b10110000 !
#11400
b10110001 !
#11410
b10110001 !
#11420
b10110001 !
#11430
b10110010 !
#11440
b10110010 !
#11450
b10110011 !
#11460
b10110011 !
#11470
b10110011 !
#11480
b10110100 !
#11490
b10110100 !
#11500
b10110100 !
#11510
b10110101 !
#11520
b10110101 !
#11530
b10110101 !
#11540
b10110110 !
#11550
b10110110 !
#11560
b10110111 !
#11570
b10110111 !
#11580
b10110111 !
#11590
b10111000 !
#11600
b10111000 !
#11610
b10111000 !
#11620
b10111001 !
#11630
b10111001 !
#11640
b10111001 !
#11650
b10111010 !
#11660
b10111010 !
#11670
b10111010 !
#11680
b10111011 !
#11690
b10111011 !
#11700
b10111011 !
#11710
b10111011 !
#11720
b10111100 !
#11730
b10111100 !
#11740
b10111100 !
#11750
b10111101 !
#11760
b10111101 !
#11770
b10111101 !
#11780
b10111101 !
#11790
b10111110 !
#11800
b10111110 !
#11810
b10111110 !
#11820
b10111111 !
#11830
b10111111 !
#11840
b10111111 !
#11850
b10111111 !
#11860
b11000000 !
#11870
b11000000 !
#11880
b11000000 !
#11890
b11000000 !
#11900
b11000000 !
#11910
b11000001 !
#11920
b11000001 !
#11930
b11000001 !
#11940
b11000001 !
#11950
b11000010 !
#11960
b11000010 !
#11970
b11000010 !
#11980
b11000010 !
#11990
b11000010 !
#12000
b11000011 !
#12010
b11000011 !
#12020
b11000011 !
#12030
b11000011 !
#12040
b11000011 !
#12050
b11000100 !
#12060
b11000100 !
#12070
b11000100 !
#12080
b11000100 !
#12090
b11000100 !
#12100
b11000100 !
#12110
b11000101 !
#12120
b11000101 !
#12130
b11000101 !
#12140
b11000101 !
#12150
b11000101 !
#12160
b11000101 !
#12170
b11000101 !
#12180
b11000101 !
#12190
b11000110 !
#12200
b11000110 !
#12210
b11000110 !
#12220
b11000110 !
#12230
b11000110 !
#12240
b11000110 !
#12250
b11000110 !
#12260
b11000110 !
#12270
b11000110 !
#12280
b11000111 !
#12290
b11000111 !
#12300
b11000111 !
#12310
b11000111 !
#12320
b11000111 !
#12330
b11000111 !
#12340
b11000111 !
#12350
b11000111 !
#12360
b11000111 !
#12370
b11000111 !
#12380
b11000111 !
#12390
b11000111 !
#12400
b11000111 !
#12410
b11000111 !
#12420
b11000111 !
#12430
b11000111 !
#12440
b11000111 !
#12450
b11000111 !
#12460
b11000111 !
#12470
b11000111 !
#12480
b11000111 !
#12490
b11000111 !
#12500
b11001000 !
#12510
b11000111 !
#12520
b11000111 !
#12530
b11000111 !
#12540
b11000111 !
#12550
b11000111 !
#12560
b11000111 !
#12570
b11000111 !
#12580
b11000111 !
#12590
b11000111 !
#12600
b11000111 !
#12610
b11000111 !
#12620
b11000111 !
#12630
b11000111 !
#12640
b11000111 !
#12650
b11000111 !
#12660
b11000111 !
#12670
b11000111 !
#12680
b11000111 !
#12690
b11000111 !
#12700
b11000111 !
#12710
b11000111 !
#12720
b11000111 !
#12730
b11000110 !
#12740
b11000110 !
#12750
b11000110 !
#12760
b11000110 !
#12770
b11000110 !
#12780
b11000110 !
#12790
b11000110 !
#12800
b11000110 !
#12810
b11000110 !
#12820
b11000101 !
#12830
b11000101 !
#12840
b11000101 !
#12850
b11000101 !
#12860
b11000101 !
#12870
b11000101 !
#12880
b11000101 !
#12890
b11000101 !
#12900
b11000100 !
#12910
b11000100 !
#12920
b11000100 !
#12930
b11000100 !
#12940
b11000100 !
#12950
b11000100 !
#12960
b11000011 !
#12970
b11000011 !
#12980
b11000011 !
#12990
b11000011 !
#13000
b11000011 !
#13010
b11000010 !
#13020
b11000010 !
#13030
b11000010 !
#13040
b11000010 !
#13050
b11000010 !
#13060
b11000001 !
#13070
b11000001 !
#13080
b11000001 !
#13090
b11000001 !
#13100
b11000000 !
#13110
b11000000 !
#13120
b11000000 !
#13130
b11000000 !
#13140
b11000000 !
#13150
b10111111 !
#13160
b10111111 !
#13170
b10111111 !
#13180
b10111111 !
#13190
b10111110 !
#13200
b10111110 !
#13210
b10111110 !
#13220
b10111101 !
#13230
b10111101 !
#13240
b10111101 !
#13250
b10111101 !
#13260
b10111100 !
#13270
b10111100 !
#13280
b10111100 !
#13290
b10111011 !
#13300
b10111011 !
#13310
b10111011 !
#13320
b10111011 !
#13330
b10111010 !
#13340
b10111010 !
#13350
b10111010 !
#13360
b10111001 !
#13370
b10111001 !
#13380
b10111001 !
#13390
b10111000 !
#13400
b10111000 !
#13410
b10111000 !
#13420
b10110111 !
#13430
b10110111 !
#13440
b10110111 !
#13450
b10110110 !
#13460
b10110110 !
#13470
b10110101 !
#13480
b10110101 !
#13490
b10110101 !
#13500
b10110100 !
#13510
b10110100 !
#13520
b10110100 !
#13530
b10110011 !
#13540
b10110011 !
#13550
b10110011 !
#13560
b10110010 !
#13570
b10110010 !
#13580
b10110001 !
#13590
b10110001 !
